{
  "todos": [
    {
      "id": 1590959299849,
      "title": "Lassana",
      "description": "Une description aussi",
      "synced": "true",
      "updated": "false",
      "done": "true",
      "deleted": "false",
      "date": 1590959299849
    },
    {
      "id": 1590964846736,
      "title": "Diakité",
      "description": "Deuxième partie aussi",
      "synced": "true",
      "updated": "false",
      "done": "false",
      "deleted": "false",
      "date": 1590964846736
    },
    {
      "id": 1590971981550,
      "title": "DIAKITE Lassana",
      "description": "DIAKITE Lassana ESGI IW3. Cours de PWA",
      "synced": "true",
      "updated": "false",
      "done": "true",
      "deleted": "false",
      "date": 1590971981550
    }
  ]
}